ds202_lab3
…
WE can see that people who didn't answer their marital status has average school years of 15.48 years, and people who are widowed have the least average school years which is 11.20 years. People who are never married, divorced, and married have similar average school years around 13 years. People who are separated right now have the average school years of 11.86 years.

Question 2

newdata <- gss %>%
  group_by(`Marital status`) %>%
  filter(`Highest year of school completed` > mean(`Highest year of school completed`, na.rm = T))
newdata

## # A tibble: 30,714 x 8
## # Groups:   Marital status [6]
##    `Gss year for t~ `General happin~ `Political part~ `Respondents se~
##               <dbl> <fct>            <fct>            <fct>           
##  1             1972 Not too happy    Ind,near dem     Female          
##  2             1972 Not too happy    Not str democrat Female          
##  3             1972 Pretty happy     Ind,near dem     Male            
##  4             1972 Not too happy    Ind,near dem     Male            
##  5             1972 Pretty happy     Strong democrat  Female          
##  6             1972 Not too happy    Strong democrat  Male            
##  7             1972 Very happy       Ind,near rep     Male            
##  8             1972 Very happy       Ind,near dem     Female          
##  9             1972 Very happy       Ind,near rep     Female          
## 10             1972 Very happy       Ind,near dem     Male            
## # ... with 30,704 more rows, and 4 more variables: `Highest year of school
## #   completed` <dbl>, `Age when first married` <dbl>, `Marital status` <fct>,
## #   `Respondent id number` <dbl>
…
